{
    "data":[
       {"_id":"9876543","cuisine":"Indian"},
       {"_id":"9876543","cuisine":"Chinese"},
       {"_id":"9876543","cuisine":"Italian"},
       {"_id":"9876543","cuisine":"Thai"},
       {"_id":"9876543","cuisine":"Indian"},
       {"_id":"9876543","cuisine":"Chinese"},
       {"_id":"9876543","cuisine":"Italian"},
       {"_id":"9876543","cuisine":"Thai"},
       {"_id":"9876543","cuisine":"Indian"},
       {"_id":"9876543","cuisine":"Chinese"},
       {"_id":"9876543","cuisine":"Italian"},
       {"_id":"9876543","cuisine":"Thai"},
       {"_id":"9876543","cuisine":"Indian"},
       {"_id":"9876543","cuisine":"Chinese"},
       {"_id":"9876543","cuisine":"Italian"},
       {"_id":"9876543","cuisine":"Thai"} 
    ]
}