{
    
    "accessPoint":true,
    "versions": [
        {
            "versionName": "version1",
            "created": {
                "dateCreatedandTime": "20/01/2020",
                "dateEditedandTime": "23/01/2020",
                "editedBy": "ak"
            }
        },
        {
            "versionName": "version2",
            "created": {
                "dateCreatedandTime": "20/01/2020",
                "dateEditedandTime": "23/01/2020",
                "editedBy": "ak"
            }
        },
        {
            "versionName": "version3",
            "created": {
                "dateCreatedandTime": "20/01/2020",
                "dateEditedandTime": "23/01/2020",
                "editedBy": "ak"
            }
        }
    ]
}